{
  "project_info": {
    "project_number": "851676056168",
    "firebase_url": "https://linkage-34ebf.firebaseio.com",
    "project_id": "linkage-34ebf",
    "storage_bucket": "linkage-34ebf.appspot.com"
  },
  "client": [
    {
      "client_info": {
        "mobilesdk_app_id": "1:851676056168:android:e5b9ee274ae3d982",
        "android_client_info": {
          "package_name": "com.ju.linkage"
        }
      },
      "oauth_client": [
        {
          "client_id": "851676056168-u10ots78nouceir954op0mlbq77dmjor.apps.googleusercontent.com",
          "client_type": 3
        }
      ],
      "api_key": [
        {
          "current_key": "AIzaSyBk1V60cZiyy_WAXNGt6zDXkd9ElegIMl4"
        }
      ],
      "services": {
        "analytics_service": {
          "status": 1
        },
        "appinvite_service": {
          "status": 1,
          "other_platform_oauth_client": []
        },
        "ads_service": {
          "status": 2
        }
      }
    }
  ],
  "configuration_version": "1"
}